<svg xmlns="http://www.w3.org/2000/svg" width="32" height="34" viewBox="0 0 16 17">
  <metadata><?xpacket begin="﻿" id="W5M0MpCehiHzreSzNTczkc9d"?>
<x:xmpmeta xmlns:x="adobe:ns:meta/" x:xmptk="Adobe XMP Core 5.6-c140 79.160451, 2017/05/06-01:08:21        ">
   <rdf:RDF xmlns:rdf="http://www.w3.org/1999/02/22-rdf-syntax-ns#">
      <rdf:Description rdf:about=""/>
   </rdf:RDF>
</x:xmpmeta>
                                                                                                    
                                                                                                    
                                                                                                    
                                                                                                    
                                                                                                    
                                                                                                    
                                                                                                    
                                                                                                    
                                                                                                    
                                                                                                    
                                                                                                    
                                                                                                    
                                                                                                    
                                                                                                    
                                                                                                    
                                                                                                    
                                                                                                    
                                                                                                    
                                                                                                    
                                                                                                    
                           
<?xpacket end="w"?></metadata>
<defs>
    <style>
      #ADMIN {
        fill: #fff;
        fill-rule: evenodd;
      }
    </style>
  </defs>
  <path id="ADMIN" class="cls-1" d="M2365.83,3173.35a6.635,6.635,0,0,0,.97-3.51c0-3.22-2.15-5.84-4.8-5.84s-4.8,2.62-4.8,5.84a6.635,6.635,0,0,0,.97,3.51,6.831,6.831,0,0,0-4.17,6.06v0.53a1.069,1.069,0,0,0,1.07,1.06h13.86a1.069,1.069,0,0,0,1.07-1.06v-0.53A6.831,6.831,0,0,0,2365.83,3173.35Zm-3.83-7.76c1.73,0,3.2,1.95,3.2,4.25s-1.47,4.25-3.2,4.25-3.2-1.94-3.2-4.25S2360.27,3165.59,2362,3165.59Zm-6.4,13.82a5.345,5.345,0,0,1,3.64-4.79,4.095,4.095,0,0,0,5.52,0,5.345,5.345,0,0,1,3.64,4.79h-12.8Z" transform="translate(-2354 -3164)"/>
</svg>
