<svg xmlns="http://www.w3.org/2000/svg" width="44" height="36" viewBox="0 0 22 18">
  <metadata><?xpacket begin="﻿" id="W5M0MpCehiHzreSzNTczkc9d"?>
<x:xmpmeta xmlns:x="adobe:ns:meta/" x:xmptk="Adobe XMP Core 5.6-c140 79.160451, 2017/05/06-01:08:21        ">
   <rdf:RDF xmlns:rdf="http://www.w3.org/1999/02/22-rdf-syntax-ns#">
      <rdf:Description rdf:about=""/>
   </rdf:RDF>
</x:xmpmeta>
                                                                                                    
                                                                                                    
                                                                                                    
                                                                                                    
                                                                                                    
                                                                                                    
                                                                                                    
                                                                                                    
                                                                                                    
                                                                                                    
                                                                                                    
                                                                                                    
                                                                                                    
                                                                                                    
                                                                                                    
                                                                                                    
                                                                                                    
                                                                                                    
                                                                                                    
                                                                                                    
                           
<?xpacket end="w"?></metadata>
<defs>
    <style>
      #REPORT {
        fill: #fff;
        fill-rule: evenodd;
      }
    </style>
  </defs>
  <path id="REPORT" class="cls-1" d="M2374.64,3103.18a18.247,18.247,0,0,1-5.29-4.66c-0.35-.52-0.65-1.05-0.93-1.56a7.377,7.377,0,0,0-2.95-3.4c-0.21-.11-0.41-0.2-0.61-0.29-0.59-1.95-1.45-3.81-2.62-4.64a2.152,2.152,0,0,0-1.86-.38c-1.71.46-2.2,4.34-2.25,8.14a47.119,47.119,0,0,0-2.45,6.79h-0.88V3086H2354v17.98h11.76l8.8,0.02h0a0.359,0.359,0,0,0,.11-0.02H2376v-0.8h-1.36Zm-14.06-14.15a1.375,1.375,0,0,1,1.2.25,7.658,7.658,0,0,1,2.13,3.66,4.681,4.681,0,0,0-4.29,1.23,3.851,3.851,0,0,0-.65.75C2359.18,3090.99,2359.93,3089.2,2360.58,3089.03Zm-4.06,14.13c0.34-1.21.94-3.1,1.62-4.8,0.04,2.01.17,3.8,0.25,4.81Zm7.22,0.02-4.55-.01a65.47,65.47,0,0,1-.27-6.57,5.841,5.841,0,0,1,1.21-1.81,3.8,3.8,0,0,1,4.07-.92,23.533,23.533,0,0,1,.85,4.52,6.879,6.879,0,0,0,2.76,4.79h-4.07Zm5.5,0c-0.46-.26-3.17-1.9-3.39-4.85a26.12,26.12,0,0,0-.7-4.03,6.794,6.794,0,0,1,2.57,3.05c0.29,0.52.59,1.07,0.97,1.62a17.288,17.288,0,0,0,4.46,4.21h-3.91Z" transform="translate(-2354 -3086)"/>
</svg>
