<svg xmlns="http://www.w3.org/2000/svg" width="40" height="12" viewBox="0 0 20 6">
  <metadata><?xpacket begin="﻿" id="W5M0MpCehiHzreSzNTczkc9d"?>
<x:xmpmeta xmlns:x="adobe:ns:meta/" x:xmptk="Adobe XMP Core 5.6-c140 79.160451, 2017/05/06-01:08:21        ">
   <rdf:RDF xmlns:rdf="http://www.w3.org/1999/02/22-rdf-syntax-ns#">
      <rdf:Description rdf:about=""/>
   </rdf:RDF>
</x:xmpmeta>
                                                                                                    
                                                                                                    
                                                                                                    
                                                                                                    
                                                                                                    
                                                                                                    
                                                                                                    
                                                                                                    
                                                                                                    
                                                                                                    
                                                                                                    
                                                                                                    
                                                                                                    
                                                                                                    
                                                                                                    
                                                                                                    
                                                                                                    
                                                                                                    
                                                                                                    
                                                                                                    
                           
<?xpacket end="w"?></metadata>
<defs>
    <style>
      #SEE_MORE {
        fill: #fff;
        stroke: #999;
        stroke-width: 1px;
        fill-rule: evenodd;
      }
    </style>
  </defs>
  <path id="SEE_MORE" data-name="SEE MORE" class="cls-1" d="M1493.5,1737a2.5,2.5,0,1,1-2.5,2.5A2.5,2.5,0,0,1,1493.5,1737Zm-7,0a2.5,2.5,0,1,1-2.5,2.5A2.5,2.5,0,0,1,1486.5,1737Zm-7,0a2.5,2.5,0,1,1-2.5,2.5A2.5,2.5,0,0,1,1479.5,1737Z" transform="translate(-1476.5 -1736.5)"/>
</svg>
