<svg xmlns="http://www.w3.org/2000/svg" width="42" height="54" viewBox="0 0 21 27">
  <metadata><?xpacket begin="﻿" id="W5M0MpCehiHzreSzNTczkc9d"?>
<x:xmpmeta xmlns:x="adobe:ns:meta/" x:xmptk="Adobe XMP Core 5.6-c140 79.160451, 2017/05/06-01:08:21        ">
   <rdf:RDF xmlns:rdf="http://www.w3.org/1999/02/22-rdf-syntax-ns#">
      <rdf:Description rdf:about=""/>
   </rdf:RDF>
</x:xmpmeta>
                                                                                                    
                                                                                                    
                                                                                                    
                                                                                                    
                                                                                                    
                                                                                                    
                                                                                                    
                                                                                                    
                                                                                                    
                                                                                                    
                                                                                                    
                                                                                                    
                                                                                                    
                                                                                                    
                                                                                                    
                                                                                                    
                                                                                                    
                                                                                                    
                                                                                                    
                                                                                                    
                           
<?xpacket end="w"?></metadata>
<defs>
    <style>
      #iOs {
        fill: #ccc;
        fill-rule: evenodd;
      }
    </style>
  </defs>
  <path id="iOs" class="cls-1" d="M1176.54,2277.35a6.137,6.137,0,0,1,2.78-5.14,5.914,5.914,0,0,0-4.71-2.68c-2.01-.21-3.92,1.24-4.94,1.24s-2.59-1.21-4.25-1.18a6.31,6.31,0,0,0-5.34,3.39c-2.27,4.13-.58,10.25,1.63,13.6,1.09,1.64,2.38,3.48,4.08,3.42,1.63-.07,2.25-1.11,4.22-1.11s2.53,1.11,4.26,1.07c1.76-.03,2.87-1.67,3.94-3.31a15.239,15.239,0,0,0,1.79-3.84A5.926,5.926,0,0,1,1176.54,2277.35Zm-3.25-10.04a6.107,6.107,0,0,0,1.34-4.31,5.71,5.71,0,0,0-3.79,2.04,5.8,5.8,0,0,0-1.37,4.18A4.7,4.7,0,0,0,1173.29,2267.31Z" transform="translate(-1159 -2263)"/>
</svg>
