<svg id="Noti_alarm" data-name="Noti alarm" xmlns="http://www.w3.org/2000/svg" width="64" height="64" viewBox="0 0 32 32">
  <metadata><?xpacket begin="﻿" id="W5M0MpCehiHzreSzNTczkc9d"?>
<x:xmpmeta xmlns:x="adobe:ns:meta/" x:xmptk="Adobe XMP Core 5.6-c140 79.160451, 2017/05/06-01:08:21        ">
   <rdf:RDF xmlns:rdf="http://www.w3.org/1999/02/22-rdf-syntax-ns#">
      <rdf:Description rdf:about=""/>
   </rdf:RDF>
</x:xmpmeta>
                                                                                                    
                                                                                                    
                                                                                                    
                                                                                                    
                                                                                                    
                                                                                                    
                                                                                                    
                                                                                                    
                                                                                                    
                                                                                                    
                                                                                                    
                                                                                                    
                                                                                                    
                                                                                                    
                                                                                                    
                                                                                                    
                                                                                                    
                                                                                                    
                                                                                                    
                                                                                                    
                           
<?xpacket end="w"?></metadata>
<defs>
    <style>
      #Ellipse_Notice {
        fill: #fff;
        stroke: #c82c1f;
        stroke-width: 2px;
      }

      #_ {
        fill: #c82c1f;
        fill-rule: evenodd;
      }
    </style>
  </defs>
  <circle id="Ellipse_Notice" data-name="Ellipse Notice" class="cls-1" cx="16" cy="16" r="15"/>
  <path id="_" data-name="!" class="cls-2" d="M1141.22,1958.2a1.091,1.091,0,0,0,.28-0.73,1.136,1.136,0,0,0-.28-0.74,0.925,0.925,0,0,0-.72-0.31,0.938,0.938,0,0,0-.74.31,1.086,1.086,0,0,0-.28.74,1.044,1.044,0,0,0,.28.73,0.915,0.915,0,0,0,.74.32A0.9,0.9,0,0,0,1141.22,1958.2Zm0.11-2.56v-5.93h-1.64v5.93h1.64Z" transform="translate(-1124 -1938)"/>
</svg>
