<svg xmlns="http://www.w3.org/2000/svg" width="72" height="66" viewBox="0 0 36 33">
  <metadata><?xpacket begin="﻿" id="W5M0MpCehiHzreSzNTczkc9d"?>
<x:xmpmeta xmlns:x="adobe:ns:meta/" x:xmptk="Adobe XMP Core 5.6-c140 79.160451, 2017/05/06-01:08:21        ">
   <rdf:RDF xmlns:rdf="http://www.w3.org/1999/02/22-rdf-syntax-ns#">
      <rdf:Description rdf:about=""/>
   </rdf:RDF>
</x:xmpmeta>
                                                                                                    
                                                                                                    
                                                                                                    
                                                                                                    
                                                                                                    
                                                                                                    
                                                                                                    
                                                                                                    
                                                                                                    
                                                                                                    
                                                                                                    
                                                                                                    
                                                                                                    
                                                                                                    
                                                                                                    
                                                                                                    
                                                                                                    
                                                                                                    
                                                                                                    
                                                                                                    
                           
<?xpacket end="w"?></metadata>
<defs>
    <style>
      #History {
        fill: #3d3d3d;
        fill-rule: evenodd;
      }
    </style>
  </defs>
  <path id="History" class="cls-1" d="M1170.67,2698a16.418,16.418,0,0,0-16.33,16.45,19.212,19.212,0,0,0,.58,5.12l-2.2-1.29a1.135,1.135,0,0,0-1.56.41,1.165,1.165,0,0,0,.41,1.58l5.16,3.04a0.037,0.037,0,0,1,.03.01,0.865,0.865,0,0,0,.17.07,0.564,0.564,0,0,0,.12.04c0.05,0.01.1,0.01,0.15,0.02,0.03,0,.07.01,0.1,0.01a0.127,0.127,0,0,0,.06-0.01c0.02,0,.04.01,0.06,0.01a0.188,0.188,0,0,1,.08-0.02,0.936,0.936,0,0,0,.16-0.04c0.04-.02.09-0.03,0.13-0.05a1.48,1.48,0,0,0,.13-0.08,1.249,1.249,0,0,0,.12-0.09,0.573,0.573,0,0,0,.11-0.11,0.938,0.938,0,0,0,.09-0.12,0.265,0.265,0,0,0,.05-0.06c0.01-.02.01-0.04,0.02-0.06a0.405,0.405,0,0,0,.05-0.09l2.05-5.13a1.148,1.148,0,0,0-.63-1.5,1.131,1.131,0,0,0-1.48.64l-1.06,2.63a17.435,17.435,0,0,1-.62-4.88,14.046,14.046,0,1,1,14.05,14.19,1.155,1.155,0,0,0,0,2.31A16.5,16.5,0,0,0,1170.67,2698Zm-0.44,18.72a1.1,1.1,0,0,0,.36.07c0.02,0,.05.02,0.07,0.02a1.006,1.006,0,0,0,.39-0.08,0.313,0.313,0,0,0,.1-0.05,0.9,0.9,0,0,0,.26-0.17,0.311,0.311,0,0,0,.06-0.04l7.14-7.21a1.171,1.171,0,0,0,0-1.63,1.141,1.141,0,0,0-1.62,0l-6.59,6.66-5.92-2.5a1.128,1.128,0,0,0-1.49.62,1.157,1.157,0,0,0,.61,1.51l6.62,2.8h0.01Z" transform="translate(-1151 -2698)"/>
</svg>
